{
    "name": "Menge Bibel",
    "language": "de",
    "author": "Hermann Menge",
    "publication_date": "1909",
    "license":"CC0",
    "ReadableBookNames": ["1. Mose", "2. Mose", "2. Mose", "4. Mose", "5. Mose", "Josua", "Richter", "Rut", "1. Samuel", "2. Samuel", "1. Könige", "2. Könige", "1. Chronik", "2. Chronik", "Esra", "Nehemia", "Esther", "Hiob", "Psalmen", "Sprüche", "Prediger", "Hoheslied", "Jesaja", "Jeremia", "Klagelieder", "Hesekiel", "Daniel", "Hosea", "Joel", "Amos", "Obadja", "Jona", "Micha", "Nahum", "Habakuk", "Zefanja", "Haggai", "Sacharja", "Maleachi"]
    "BookNames":""
}